{
    "$schema": "https://schema.management.azure.com/schemas/2015-01-01/deploymentTemplate.json#",
    "contentVersion": "1.0.0.0",
    "parameters": {
        "appInsightsName": {
            "type": "string",
            "metadata": {
                "description": "Name for Application Insights instance."
            }
        },
        "webSiteName": {
            "type": "string",
            "metadata": {
                "description": "The web app being monitored."
            }
        }
    },
    "variables": {},
    "resources": [
        {
            "apiVersion": "2015-05-01",
            "name": "[parameters('appInsightsName')]",
            "type": "Microsoft.Insights/components",
            "location": "East US",
            "kind": "web",
            "tags": {
                "[concat('hidden-link:', resourceGroup().id, '/providers/Microsoft.Web/sites/', parameters('webSiteName'))]": "Resource"
            },
            "properties": {
                "applicationId": "[parameters('appInsightsName')]",
                "Application_Type": "web"
            }
        }
    ],
    "outputs": {
        "instrumentationKey": {
            "type": "string",
            "value": "[reference(concat('microsoft.insights/components/', parameters('appInsightsName'))).InstrumentationKey]"
        }
    }
}